A3-Usama Naeem Toor
…
## 
## The downloaded binary packages are in
##  /var/folders/8v/x411b1b12tj_wx2k920f2d780000gn/T//Rtmp8ooUez/downloaded_packages

Answer Description : Daily summary of the Coronavirus (COVID-19) cases by state/province. Source : Johns Hopkins University Center for Systems Science and Engineering (JHU CCSE) Coronavirus website.

In an R code chunk, load the library for the coronavirus and the tidyverse packages, but use the include=FALSE option to hide the detials of the packages from your .html file. In a separate R code chunk, create your own data object named corona_ks replacing ks with your own initials that is a subset of the coronavirus data with the following restrictions: only keep only the observations where the variable type is equal to confirmed and only keep observations without sub-national data where information is tracked for each province. In other words, keep only rows where province=="".

corona_unt =filter(coronavirus, type == "confirmed", !province == "")
tibble(corona_unt)

## # A tibble: 15,552 x 7
##    date       province country   lat  long type      cases
##    <date>     <chr>    <chr>   <dbl> <dbl> <chr>     <int>
##  1 2020-01-22 Alberta  Canada   53.9 -117. confirmed     0
##  2 2020-01-23 Alberta  Canada   53.9 -117. confirmed     0
##  3 2020-01-24 Alberta  Canada   53.9 -117. confirmed     0
##  4 2020-01-25 Alberta  Canada   53.9 -117. confirmed     0
##  5 2020-01-26 Alberta  Canada   53.9 -117. confirmed     0
##  6 2020-01-27 Alberta  Canada   53.9 -117. confirmed     0
##  7 2020-01-28 Alberta  Canada   53.9 -117. confirmed     0
##  8 2020-01-29 Alberta  Canada   53.9 -117. confirmed     0
##  9 2020-01-30 Alberta  Canada   53.9 -117. confirmed     0
## 10 2020-01-31 Alberta  Canada   53.9 -117. confirmed     0
## #  with 15,542 more rows
…
tibble(Covid_Canada)

## # A tibble: 2,688 x 3
##    date       province                  cases
##    <date>     <chr>                     <int>
##  1 2020-01-22 Alberta                       0
##  2 2020-01-22 British Columbia              0
##  3 2020-01-22 Diamond Princess              0
##  4 2020-01-22 Grand Princess                0
##  5 2020-01-22 Manitoba                      0
##  6 2020-01-22 New Brunswick                 0
##  7 2020-01-22 Newfoundland and Labrador     0
##  8 2020-01-22 Northwest Territories         0
##  9 2020-01-22 Nova Scotia                   0
## 10 2020-01-22 Ontario                       0
## #  with 2,678 more rows

Answer Yes, we do have observations that are not part of Canadian provinces/territories. E.g, Diamond Princess and Grand Princess. Surprisingly, Diamond Princess and Grand Princess are two cruise ships where people were affected by COVID-19 and they had to be evacuted.

As far as the structure is concerned, date is , province is character () and type is character  data type as well.

Slect two provinces or territories, collect their Q1 2020 population from Stats Canada and use the mutate() function to create a new column that represents the deaths per 100,000 persons in the province. (Using the ifesle() fucntion within the mutate() function is one way to do this which I will discuss in the W3 lecture videos).

BC_AB_Covid = Covid_Canada %>% filter(province == "British Columbia" | province =="Alberta")                                  ##To check the operators, I did it this way.

BC_AB_Stat = mutate(BC_AB_Covid, death_per_100000 = ifelse(province == "Alberta", (cases/4361694)*100000, (cases/5090955)*100000))

tibble(BC_AB_Stat)

## # A tibble: 384 x 4
##    date       province         cases death_per_100000
##    <date>     <chr>            <int>            <dbl>
##  1 2020-01-22 Alberta              0                0
##  2 2020-01-22 British Columbia     0                0
##  3 2020-01-23 Alberta              0                0
##  4 2020-01-23 British Columbia     0                0
##  5 2020-01-24 Alberta              0                0
##  6 2020-01-24 British Columbia     0                0
##  7 2020-01-25 Alberta              0                0
##  8 2020-01-25 British Columbia     0                0
##  9 2020-01-26 Alberta              0                0
## 10 2020-01-26 British Columbia     0                0
## #  with 374 more rows
…
