A4-Usama Naeem Toor
…
Theft from Vehicle
2019
3
34

crimeStat = crimeR %>% group_by(TYPE, YEAR, MONTH) %>% summarise(count = n())

## `summarise()` regrouping output by 'TYPE', 'YEAR' (override with `.groups` argument)

crimeStat

## # A tibble: 2,226 x 4
## # Groups:   TYPE, YEAR [198]
##    TYPE                        YEAR MONTH count
##    <chr>                      <dbl> <dbl> <int>
##  1 Break and Enter Commercial  2003     1   303
##  2 Break and Enter Commercial  2003     2   254
##  3 Break and Enter Commercial  2003     3   292
##  4 Break and Enter Commercial  2003     4   266
##  5 Break and Enter Commercial  2003     5   291
##  6 Break and Enter Commercial  2003     6   307
##  7 Break and Enter Commercial  2003     7   253
##  8 Break and Enter Commercial  2003     8   241
##  9 Break and Enter Commercial  2003     9   209
## 10 Break and Enter Commercial  2003    10   306
## #  with 2,216 more rows
…
